제 10강: 선형모형 1
…
Whiteside 자료

1960년대에 영국 건축 연구소(UK Building Research Station)의 데릭 화이트사이드(Derek Whiteside)가 수집한 자료 (Hand et al., 1994).

잉글랜드 남동부에 있는 화이트사이드의 집에서 캐비티 벽 단열재를 설치하기 전과 후의 두 번의 “난방 시즌” 동안 주간 가스 소비량과 평균 외부 기온을 기록

실험 목적: 단열재가 가스 소비에 미치는 영향을 평가

R
Python

as_tibble(whiteside)

# A tibble: 56 × 3
   Insul   Temp   Gas
   <fct>  <dbl> <dbl>
 1 Before  -0.8   7.2
 2 Before  -0.7   6.9
 3 Before   0.4   6.4
 4 Before   2.5   6  
 5 Before   2.9   5.8
 6 Before   3.2   5.8
 7 Before   3.6   5.6
 8 Before   3.9   4.7
 9 Before   4.2   5.8
10 Before   4.3   5.2
# ℹ 46 more rows
…
