제 11강: 선형모형 2
…
\(|e_{i}^{\prime}| \le \sqrt{n-p}, \quad i=1,2, \dots, n\)

보통 스튜던트화 잔차를 비교하는 것이 잔차를 비교하는 것보다 좋음.

Scottish hill races 자료

R
Python

as.tibble(MASS::hills)

# A tibble: 35 × 3
    dist climb  time
   <dbl> <int> <dbl>
 1   2.5   650  16.1
 2   6    2500  48.4
 3   6     900  33.6
 4   7.5   800  45.6
 5   8    3070  62.3
 6   8    2866  73.2
 7  16    7500 205. 
 8   6     800  36.4
 9   5     800  29.8
10   6     650  39.8
# ℹ 25 more rows
…
SED (Difference between K0 and K1): 1.6042

Quine 자료와 불균형 4원배치

자료

R
Python

as.tibble(MASS::quine)

# A tibble: 146 × 5
   Eth   Sex   Age   Lrn    Days
   <fct> <fct> <fct> <fct> <int>
 1 A     M     F0    SL        2
 2 A     M     F0    SL       11
 3 A     M     F0    SL       14
 4 A     M     F0    AL        5
 5 A     M     F0    AL        5
 6 A     M     F0    AL       13
 7 A     M     F0    AL       20
 8 A     M     F0    AL       22
 9 A     M     F1    SL        6
10 A     M     F1    SL        6
# ℹ 136 more rows
…
다중비교 조정

사전에 계획된 실험에 의해 이루어지는 회귀분석에서 대조(contrast)에 대한 다중비교는 사후에 조정할 수 있다(post hoc adjustment).

9강 참조

Immer 자료

R
Python

as.tibble(MASS::immer)  # 보리 생산량에 대한 실험자료 

# A tibble: 30 × 4
   Loc   Var      Y1    Y2
   <fct> <fct> <dbl> <dbl>
 1 UF    M      81    80.7
 2 UF    S     105.   82.3
 3 UF    V     120.   80.4
 4 UF    T     110.   87.2
 5 UF    P      98.3  84.2
 6 W     M     147.  100. 
 7 W     S     142   116. 
 8 W     V     151.  112. 
 9 W     T     192.  148. 
10 W     P     146.  108. 
# ℹ 20 more rows
…
품종 T의 수확량이 품종 P와 크게 다르다는 결론을 내릴 수 없다.

Oats 자료

as.tibble(MASS::oats)

# A tibble: 72 × 4
   B     V           N          Y
   <fct> <fct>       <fct>  <int>
 1 I     Victory     0.0cwt   111
 2 I     Victory     0.2cwt   130
 3 I     Victory     0.4cwt   157
 4 I     Victory     0.6cwt   174
 5 I     Golden.rain 0.0cwt   117
 6 I     Golden.rain 0.2cwt   114
 7 I     Golden.rain 0.4cwt   161
 8 I     Golden.rain 0.6cwt   141
 9 I     Marvellous  0.0cwt   105
10 I     Marvellous  0.2cwt   140
# ℹ 62 more rows
…
