제 13강: 비선형 및 평활 회귀 I
…
plinear: 부분 선형 최소제곱 알고리즘 (Golub and Pereyra, 1973)

모든 비선형 모수가 알려진 경우 모형은 선형이 되며 표준 선형 회귀 방법을 사용할 수 있다.

선형 모수를 활용하지 않는 방법보다 훨씬 더 안정적일 수 있고 초기 값이 더 적게 필요하며 다른 절차가 실패하는 시작점에서도 수렴되는 경우가 많다.

MASS::muscle 자료 (Linder, Chakravarti and Vuagnat, 1964)

R
Python

as.tibble(MASS::muscle)

# A tibble: 60 × 3
   Strip  Conc Length
   <fct> <dbl>  <dbl>
 1 S01    1      15.8
 2 S01    2      20.8
 3 S01    3      22.6
 4 S01    4      23.8
 5 S02    1      20.6
 6 S02    2      26.8
 7 S02    3      28.4
 8 S02    4      27  
 9 S03    0.25    7.2
10 S03    0.5    15.4
# ℹ 50 more rows
…
